<svg id="miscellaneous" xmlns="http://www.w3.org/2000/svg" width="60.389" height="32.919" viewBox="0 0 60.389 32.919">
  <defs>
    <style>
      .cls-1 {
        fill: #4bc0fe;
      }

      .cls-2 {
        fill: #63cdf8;
      }

      .cls-3 {
        fill: #575757;
      }

      .cls-4 {
        fill: #8cd3f0;
      }

      .cls-5 {
        fill: #c1e7f7;
      }
    </style>
  </defs>
  <path id="Path_518" data-name="Path 518" class="cls-1" d="M18.3,126.637l-4.9-9.767a4.383,4.383,0,0,1-1.5.271,3.985,3.985,0,0,1-2.8-1.085A3.379,3.379,0,0,1,8,113.524,3.734,3.734,0,0,1,11.9,110a3.73,3.73,0,0,1,3.9,3.527,2.746,2.746,0,0,1-.4,1.537,22.819,22.819,0,0,0,6,.814,18.876,18.876,0,0,0,14.4-6.692,3.482,3.482,0,0,1-2.5-3.165,3.689,3.689,0,0,1,1.1-2.532,4.166,4.166,0,0,1,2.7-1.085,3.9,3.9,0,0,1,3.6,2.261,3.223,3.223,0,0,1-.1,2.713,3.27,3.27,0,0,1-2.2,1.809,19.5,19.5,0,0,0,14.4,6.6,19.892,19.892,0,0,0,6.1-.9,2.746,2.746,0,0,1-.4-1.537,3.734,3.734,0,0,1,3.9-3.527,3.772,3.772,0,0,1,3.6,4.884,3.822,3.822,0,0,1-3.6,2.17,4.383,4.383,0,0,1-1.5-.271l-5,9.767H18.3Z" transform="translate(-7 -101.677)"/>
  <path id="Path_519" data-name="Path 519" class="cls-1" d="M268.3,112.487a3.848,3.848,0,0,0-1.4-.271,3.734,3.734,0,0,0-3.9,3.527,2.745,2.745,0,0,0,.4,1.537,27.517,27.517,0,0,1-6.1.9,19.5,19.5,0,0,1-14.4-6.6,4.177,4.177,0,0,0,2.2-1.809,3.224,3.224,0,0,0,.1-2.713,3.9,3.9,0,0,0-3.6-2.261v24.146h18.9l5-9.767a4.383,4.383,0,0,0,1.5.271,3.975,3.975,0,0,0,3.6-2.17A3.685,3.685,0,0,0,268.3,112.487Z" transform="translate(-211.406 -103.805)"/>
  <path id="Path_520" data-name="Path 520" class="cls-2" d="M215.2,222.289l3.3,3.889,3.3-3.889-3.3-3.889Z" transform="translate(-188.305 -204.563)"/>
  <path id="Path_521" data-name="Path 521" class="cls-3" d="M209.324,206.943a1.156,1.156,0,0,0-1.4-.181l-.2.181-3.7,4.251a.765.765,0,0,0,0,1.085l3.7,4.251a1.156,1.156,0,0,0,1.4.181l.2-.181,3.7-4.251a.765.765,0,0,0,0-1.085Zm-.8,7.687-2.4-2.8,2.4-2.8,2.4,2.8Z" transform="translate(-178.33 -194.101)"/>
  <path id="Path_522" data-name="Path 522" class="cls-4" d="M241.6,316.8h18.9v6.873H241.6Z" transform="translate(-211.406 -291.84)"/>
  <path id="Path_523" data-name="Path 523" class="cls-5" d="M90.4,316.8h18.9v6.873H90.4Z" transform="translate(-79.102 -291.84)"/>
  <path id="Path_524" data-name="Path 524" class="cls-3" d="M55.49,103.506a4.691,4.691,0,0,0-4.9,4.431,2.8,2.8,0,0,0,.1.9,20.182,20.182,0,0,1-4.7.543,18.276,18.276,0,0,1-12.8-5.426,4.177,4.177,0,0,0,2-3.527A4.691,4.691,0,0,0,30.294,96a4.691,4.691,0,0,0-4.9,4.431,4.177,4.177,0,0,0,2,3.527,18.448,18.448,0,0,1-13,5.517,20.182,20.182,0,0,1-4.7-.543,2.8,2.8,0,0,0,.1-.9A4.691,4.691,0,0,0,4.9,103.6a4.454,4.454,0,1,0,0,8.863,3.047,3.047,0,0,0,.9-.09l4.5,8.953v6.692a.9.9,0,0,0,1,.9H49.091a.9.9,0,0,0,1-.9v-6.692l4.5-8.953h.9a4.454,4.454,0,1,0,0-8.863Zm-7.4,23.423H12.3v-5.064H48.091Zm7.4-16.369a3.934,3.934,0,0,1-1.1-.181,1.036,1.036,0,0,0-1.3.452l-4.7,9.224H12l-4.7-9.224a1.036,1.036,0,0,0-1.3-.452,3.021,3.021,0,0,1-3.8-1.447A2.552,2.552,0,0,1,3.8,105.5a3.1,3.1,0,0,1,3.8,1.447,3.519,3.519,0,0,1,.2.995,2.567,2.567,0,0,1-.3,1.176.866.866,0,0,0,.5,1.176s.1,0,.1.09a21.183,21.183,0,0,0,6.3.9,20.144,20.144,0,0,0,15.2-7.054.909.909,0,0,0-.2-1.266c-.1,0-.1-.09-.2-.09a2.678,2.678,0,0,1-1.7-3.437,3.156,3.156,0,0,1,3.8-1.537,2.678,2.678,0,0,1,1.7,3.437,2.735,2.735,0,0,1-1.7,1.537.917.917,0,0,0-.6,1.176.308.308,0,0,0,.1.181,20.456,20.456,0,0,0,15.2,7.054,21.183,21.183,0,0,0,6.3-.9,1.022,1.022,0,0,0,.7-1.176c0-.09,0-.09-.1-.09a2.31,2.31,0,0,1-.3-1.176,2.914,2.914,0,1,1,2.9,2.623Z" transform="translate(0 -96)"/>
</svg>
